taxid,Mycoplasma_p37,second_domain
2100,1,1
1118964,1,1
872331,1,1
936139,1,0
634997,1,0
1129369,1,0
2107,1,0
272635,1,0
28227,1,0
272633,1,0
2097,1,0
662946,1,0
662947,1,0
243273,1,0
662945,1,0
488339,1,0
2104,1,0
272634,1,0
1238993,1,0
1112856,1,0
722438,1,0
663918,1,0
2096,1,0
1159197,1,0
1159199,1,0
1159200,1,0
1159201,1,0
1006581,1,0
708616,1,0
710127,1,0
710128,1,1
233150,1,1
1159198,1,1
1159204,1,1
1159202,1,1
1159203,1,1
29560,1,1
2099,1,1
262722,1,1
754503,1,1
262719,1,1
907287,1,1
295358,1,1
2128,1,1
1004152,1,1
1116211,1,1
45361,1,1
572263,1,1
1188239,1,1
29562,1,1
171287,1,1
743966,1,1
2121,1,1
2098,1,1
347256,1,1
2094,1,1
1188236,1,1
2124,1,1
92406,1,1
29559,1,1
51363,1,1
1188233,1,1
45363,1,1
1188234,1,1
2116,1,1
1048830,1,1
2111,1,1
243272,1,1
171279,1,1
1034808,1,1
33924,1,1
92401,1,1
36742,1,1
114881,1,1
1037410,1,1
2109,1,1
262723,1,1
2093,1,1
50052,1,1
512564,1,1
171284,1,1
1246955,1,1
47687,1,1
747682,1,1
29555,1,1
1131453,1,1
1131452,1,1
1131454,1,1
1117644,1,1
1131455,1,1
2112,1,1
1188235,1,1
114884,1,1
35768,1,1
2115,1,1
637387,1,1
943945,1,1
496833,1,1
76630,1,1
55604,1,1
1179777,1,1
2113,1,1
1397850,1,1
28903,1,1
289397,1,1
956483,1,1
767465,1,1
1316930,1,1
2102,1,1
272632,1,1
865867,1,1
436113,1,1
766747,1,1
2095,1,1
340047,1,1
2105,1,1
866629,1,1
880447,1,1
1188238,1,1
2110,1,1
36744,1,1
862259,1,1
1188246,1,1
1188243,1,1
171283,1,1
347257,1,1
1110504,1,1
114886,1,1
2123,1,1
1292033,1,1
743965,1,1
51365,1,1
1188240,1,1
83554,1,1
1112253,1,1
33968,1,1
1154757,1,1
1339246,1,1
1339247,1,1
1252,1,1
1229758,1,1
