gi,sterol-sensing
gi|530413816,1
gi|578832534,1
gi|530413814,1
gi|530413812,1
gi|397520466,1
gi|675794690,1
gi|114672573,1
gi|686755584,1
gi|694970898,1
gi|426385587,1
gi|635100320,1
gi|402902800,1
gi|685603448,1
gi|544506645,1
gi|544506647,1
gi|724922772,1
gi|675716068,1
gi|555973883,1
gi|725560439,1
gi|725560437,1
gi|27807461,1
gi|50978806,1
gi|57863766,1
gi|47523702,1
gi|594626100,1
gi|585165128,1
gi|545224666,1
gi|560965543,1
gi|664753790,1
gi|586530358,1
gi|586530356,1
gi|301753717,1
gi|594112943,1
gi|511836630,1
gi|478493496,1
gi|591298004,1
gi|640805095,1
gi|472388910,1
gi|511836628,1
gi|514469251,1
gi|532086757,1
gi|593743743,1
gi|593743741,1
gi|562858523,1
gi|466028633,1
gi|555973885,1
gi|529004873,1
gi|426253685,1
gi|511944669,1
gi|586452526,1
gi|617624928,1
gi|471412891,1
gi|533114158,1
gi|507647475,1
gi|126723431,1
gi|655835600,1
gi|655835598,1
gi|507541790,1
gi|558196546,1
gi|488547339,1
gi|344269954,1
gi|512982438,1
gi|674076888,1
gi|350539673,1
gi|512903557,1
gi|564392608,1
gi|311771778,1
gi|507662788,1
gi|602726445,1
gi|532025622,1
gi|504134242,1
gi|569003415,1
gi|89242146,1
gi|641714535,1
gi|589953788,1
gi|584058837,1
gi|524922048,1
gi|395511619,1
gi|612007251,1
gi|554562240,1
gi|620971518,1
gi|297275084,1
gi|327269875,1
gi|695166227,1
gi|696987457,1
gi|543714288,1
gi|699629465,1
gi|699672389,1
gi|557330514,1
gi|701434860,1
gi|704166323,1
gi|527271388,1
gi|675634387,1
gi|706123735,1
gi|704231290,1
gi|514704706,1
gi|363730918,1
gi|675425698,1
gi|529447306,1
gi|699610688,1
gi|564241603,1
gi|697851252,1
gi|704467795,1
gi|683888932,1
gi|704574467,1
gi|701297990,1
gi|690461645,1
gi|686614255,1
gi|541956243,1
gi|701417355,1
gi|326917537,1
gi|723125248,1
gi|723548177,1
gi|542164272,1
gi|663273713,1
gi|700388092,1
gi|513171978,1
gi|694855952,1
gi|705701673,1
gi|513171980,1
gi|513171982,1
gi|694651712,1
gi|677997770,1
gi|543252511,1
gi|697022024,1
gi|700411654,1
gi|700333845,1
gi|698455821,1
gi|224046161,1
gi|591364345,1
gi|543341578,1
gi|727009714,1
gi|669284767,1
gi|530577774,1
gi|524988106,1
gi|524988108,1
gi|556960708,1
gi|573892504,1
gi|301609239,1
gi|512846966,1
gi|558135160,1
gi|632959089,1
gi|657584209,1
gi|348500675,1
gi|583994067,1
gi|410923889,1
gi|498945986,1
gi|548422487,1
gi|617388314,1
gi|554803238,1
gi|441603593,1
gi|551496949,1
gi|658899884,1
gi|657810603,1
gi|432917243,1
gi|667331865,1
gi|545224668,1
gi|345195206,1
gi|528470111,1
gi|528470113,1
gi|556739244,1
gi|694970901,1
gi|675794693,1
gi|602659356,1
gi|260786753,1
gi|699239684,1
gi|524881653,1
gi|291221448,1
gi|383847243,1
gi|380018701,1
gi|571562678,1
gi|350407874,1
gi|571562680,1
gi|571562674,1
gi|571562676,1
gi|571562682,1
gi|571562684,1
gi|380018703,1
gi|340721922,1
gi|585681449,1
gi|557767523,1
gi|557767521,1
gi|557767525,1
gi|196010479,1
gi|572311537,1
gi|572311539,1
gi|572311533,1
gi|572311535,1
gi|72076342,1
gi|572311545,1
gi|572311543,1
gi|572311541,1
gi|195578067,1
gi|195119189,1
gi|195397614,1
gi|156389303,1
gi|195339683,1
gi|676430511,1
gi|195473529,1
gi|170037373,1
gi|24583258,1
gi|665407386,1
gi|194761678,1
gi|194859612,1
gi|380012730,1
gi|498948982,1
gi|498948935,1
gi|665805638,1
gi|665805636,1
gi|665805634,1
gi|665805632,1
gi|632977966,1
gi|645028150,1
gi|328698654,1
gi|354485263,1
gi|674052038,1
gi|573874361,1
gi|395507000,1
gi|383864296,1
gi|350400475,1
gi|526252942,1
gi|585682287,1
gi|338723834,1
gi|512827162,1
gi|512955241,1
gi|512955243,1
gi|634891628,1
gi|512877915,1
gi|584022545,1
gi|724879138,1
gi|724879145,1
gi|724879142,1
gi|642938459,1
gi|126723429,1
gi|642938457,1
gi|507642205,1
gi|642938455,1
gi|555974996,1
gi|471409185,1
gi|253970442,1
gi|554824401,1
gi|156231351,1
gi|156231353,1
gi|507537463,1
gi|498954267,1
gi|426356097,1
gi|426356095,1
gi|675878008,1
gi|617609332,1
gi|586553080,1
gi|472389568,1
gi|703157349,1
gi|507669029,1
gi|332239442,1
gi|694920836,1
gi|548354976,1
gi|694920834,1
gi|332865077,1
gi|675679796,1
gi|397467118,1
gi|332239438,1
gi|312069642,1
gi|542197243,1
gi|566155625,1
gi|470112161,1
gi|611979772,1
gi|695542581,1
gi|532066886,1
gi|348560064,1
gi|586448277,1
gi|571448724,1
gi|640786018,1
gi|402863588,1
gi|194666386,1
gi|395850113,1
gi|640786016,1
gi|586767340,1
gi|585168849,1
gi|594054192,1
gi|565497926,1
gi|532046972,1
gi|533166055,1
gi|544420232,1
gi|544420234,1
gi|117956369,1
gi|591292508,1
gi|566173514,1
gi|566173520,1
gi|242019688,1
gi|410951928,1
gi|557325180,1
gi|566173516,1
gi|589919966,1
gi|242023801,1
gi|507930709,1
gi|645260738,1
gi|645260736,1
gi|50300485,1
gi|556723936,1
gi|148223061,1
gi|727577419,1
gi|426228429,1
gi|599103056,1
gi|301777318,1
gi|727421035,1
gi|694437837,1
gi|597744453,1
gi|488552449,1
gi|548463643,1
gi|560897492,1
gi|602669019,1
gi|545883755,1
gi|566173512,1
gi|685331645,1
gi|568839659,1
gi|567885617,1
gi|685300199,1
gi|560990104,1
gi|593267685,1
gi|595780330,1
gi|567209426,1
gi|530635218,1
gi|478528418,1
gi|511829617,1
gi|511829619,1
gi|702368515,1
gi|598014767,1
gi|568866512,1
gi|344293828,1
gi|645265085,1
gi|571458451,1
gi|505843904,1
gi|593571198,1
gi|502100128,1
gi|590683471,1
gi|590683468,1
gi|590683458,1
gi|564228358,1
gi|657980852,1
gi|597922198,1
gi|597991045,1
gi|367007808,1
gi|694378948,1
gi|565350366,1
gi|694378945,1
gi|255539230,1
gi|703092179,1
gi|410928136,1
gi|595856567,1
gi|658868953,1
gi|170086992,1
gi|466074064,1
gi|571442550,1
gi|571505914,1
gi|571505910,1
gi|697071261,1
gi|617363930,1
gi|562876601,1
gi|590595388,1
gi|659094693,1
gi|590595406,1
gi|590595378,1
gi|590595413,1
gi|659094691,1
gi|593738904,1
gi|590595381,1
gi|685409549,1
gi|659104696,1
gi|470132212,1
gi|242772198,1
gi|460385487,1
gi|449444411,1
gi|449485264,1
gi|642930623,1
gi|359491908,1
gi|698487335,1
gi|321259187,1
gi|602705400,1
gi|576041714,1
gi|347964105,1
gi|156060167,1
gi|695073680,1
gi|631246227,1
gi|359474967,1
gi|636767347,1
gi|444320001,1
gi|595796963,1
gi|697137180,1
gi|391327389,1
gi|568452321,1
gi|685347292,1
gi|695074779,1
gi|334187266,1
gi|334187268,1
gi|597978057,1
gi|432875250,1
gi|597910350,1
gi|134111997,1
gi|58267588,1
gi|657591556,1
gi|671159035,1
gi|449455603,1
gi|543745611,1
gi|636585721,1
gi|514803231,1
gi|171682538,1
gi|241647497,1
gi|670446611,1
gi|727510927,1
gi|302696991,1
gi|727521455,1
gi|671181008,1
gi|168000795,1
gi|628071161,1
gi|641736452,1
gi|628224087,1
gi|702464208,1
gi|545373767,1
gi|567215984,1
gi|630346187,1
gi|615407143,1
gi|389641063,1
gi|504140221,1
gi|242076802,1
gi|169619972,1
gi|551515064,1
gi|258575227,1
gi|303311605,1
gi|367039875,1
gi|594680110,1
gi|589102023,1
gi|727557693,1
gi|684403466,1
gi|367029411,1
gi|189201353,1
gi|566188377,1
gi|627824936,1
gi|317155810,1
gi|571551212,1
gi|330945970,1
gi|70992077,1
gi|629639066,1
gi|302790111,1
gi|302797583,1
gi|448097031,1
gi|119471080,1
gi|302659709,1
gi|615449205,1
gi|340372645,1
gi|565440939,1
gi|599375570,1
gi|367011423,1
gi|573940485,1
gi|255946473,1
gi|664734536,1
gi|121699459,1
gi|721693605,1
gi|195393174,1
gi|315040620,1
gi|448111059,1
gi|363755512,1
gi|254583624,1
gi|589274242,1
gi|296813839,1
gi|684175287,1
gi|396474979,1
gi|667649749,1
gi|116202779,1
gi|657815195,1
gi|671022020,1
gi|628851119,1
gi|254565407,1
gi|628318228,1
gi|327302384,1
gi|302510216,1
gi|667838634,1
gi|336270058,1
gi|685868011,1
gi|46134229,1
gi|645015676,1
gi|629657361,1
gi|50549181,1
gi|261205408,1
gi|596718532,1
gi|597584447,1
gi|212531191,1
gi|260943141,1
gi|45201088,1
gi|630030024,1
gi|67523325,1
gi|698994754,1
gi|50293501,1
gi|302895869,1
gi|296416499,1
gi|573975258,1
gi|195130501,1
gi|157123534,1
gi|365985383,1
gi|512915491,1
gi|294656405,1
gi|630174476,1
gi|599352609,1
gi|627799451,1
gi|17569119,1
gi|628236736,1
gi|50312503,1
gi|221500219,1
gi|308511869,1
gi|115399096,1
gi|255710553,1
gi|410076046,1
gi|194897388,1
gi|195482174,1
gi|195346057,1
gi|145243960,1
gi|194770001,1
gi|403173782,1
gi|701366564,1
gi|512898549,1
gi|195058610,1
gi|628336493,1
gi|659104698,1
gi|125982203,1
gi|268579127,1
gi|448534980,1
gi|146414123,1
gi|6325251,1
gi|557758526,1
gi|295673748,1
gi|575517107,1
gi|629688897,1
gi|158297016,1
gi|242002008,1
gi|629710083,1
gi|154274666,1
gi|398399202,1
gi|628306992,1
gi|68482049,1
gi|255728967,1
gi|631375234,1
gi|498956121,1
gi|85077951,1
gi|71006122,1
gi|150951654,1
gi|195432404,1
gi|241950487,1
gi|514793220,1
gi|17554358,1
gi|268573942,1
gi|195167395,1
gi|470253444,1
gi|330842178,1
gi|512915487,1
gi|330801045,1
gi|554583030,1
gi|675181929,1
gi|470253630,1
gi|391337069,1
gi|675181911,1
gi|672165905,1
gi|721693608,1
gi|572303750,1
gi|66826891,1
gi|695380131,1
gi|301105258,1
gi|657812043,1
gi|67466749,1
gi|672804836,1
gi|339236055,1
gi|299747301,1
gi|673039351,1
gi|669138432,1
gi|698793846,1
gi|167379322,1
gi|149239662,1
gi|598070151,1
